\relax 
\providecommand\hyper@newdestlabel[2]{}
\providecommand\HyperFirstAtBeginDocument{\AtBeginDocument}
\HyperFirstAtBeginDocument{\ifx\hyper@anchor\@undefined
\global\let\oldcontentsline\contentsline
\gdef\contentsline#1#2#3#4{\oldcontentsline{#1}{#2}{#3}}
\global\let\oldnewlabel\newlabel
\gdef\newlabel#1#2{\newlabelxx{#1}#2}
\gdef\newlabelxx#1#2#3#4#5#6{\oldnewlabel{#1}{{#2}{#3}}}
\AtEndDocument{\ifx\hyper@anchor\@undefined
\let\contentsline\oldcontentsline
\let\newlabel\oldnewlabel
\fi}
\fi}
\global\let\hyper@last\relax 
\gdef\HyperFirstAtBeginDocument#1{#1}
\providecommand\HyField@AuxAddToFields[1]{}
\providecommand\HyField@AuxAddToCoFields[2]{}
\citation{Qubit}
\citation{Norvig}
\select@language{english}
\@writefile{toc}{\select@language{english}}
\@writefile{lof}{\select@language{english}}
\@writefile{lot}{\select@language{english}}
\@writefile{toc}{\contentsline {section}{\numberline {1}Introduction}{1}{section.1}}
\@writefile{toc}{\contentsline {section}{\numberline {2}Design}{1}{section.2}}
\@writefile{toc}{\contentsline {subsection}{\numberline {2.1}Language}{1}{subsection.2.1}}
\@writefile{toc}{\contentsline {subsection}{\numberline {2.2}Representing the game}{1}{subsection.2.2}}
\@writefile{toc}{\contentsline {subsection}{\numberline {2.3}Play history}{1}{subsection.2.3}}
\citation{Russell}
\citation{Russell}
\@writefile{toc}{\contentsline {subsection}{\numberline {2.4}Undo/Redo}{2}{subsection.2.4}}
\@writefile{lof}{\contentsline {figure}{\numberline {1}{\ignorespaces Undo/Redo function - applied by player 1}}{2}{figure.1}}
\@writefile{toc}{\contentsline {subsection}{\numberline {2.5}AI}{2}{subsection.2.5}}
\@writefile{lof}{\contentsline {figure}{\numberline {2}{\ignorespaces Minimax Game Tree \cite  {Russell}}}{2}{figure.2}}
\@writefile{toc}{\contentsline {section}{\numberline {3}Enhancements}{3}{section.3}}
\@writefile{toc}{\contentsline {section}{\numberline {4}Critical Evaluation}{3}{section.4}}
\@writefile{toc}{\contentsline {subsection}{\numberline {4.1}Replay}{3}{subsection.4.1}}
\@writefile{loa}{\contentsline {algocf}{\numberline {1}{\ignorespaces Replay}}{3}{algocf.1}}
\@writefile{toc}{\contentsline {subsection}{\numberline {4.2}Undo/Redo}{3}{subsection.4.2}}
\@writefile{toc}{\contentsline {subsection}{\numberline {4.3}Chain jumps}{3}{subsection.4.3}}
\@writefile{toc}{\contentsline {subsection}{\numberline {4.4}AI}{3}{subsection.4.4}}
\bibdata{references}
\bibcite{Norvig}{1}
\bibcite{Russell}{2}
\bibcite{Qubit}{3}
\@writefile{toc}{\contentsline {section}{\numberline {5}Personal Evaluation}{4}{section.5}}
\@writefile{toc}{\contentsline {section}{\numberline {6}Appendix}{4}{section.6}}
\@writefile{toc}{\contentsline {subsection}{\numberline {6.1}Search tests results}{4}{subsection.6.1}}
